…
```r
day <- group_by(data, date)
tot_steps_day <- summarize(day, nsteps=sum(steps))
```

The first 10 observations in **tot_steps_day** are displayed below, where the
first column represents the day and the second column the total number of steps
for that particular day.

```r
tot_steps_day
```

```
## # A tibble: 61 x 2
##    date       nsteps
##    <chr>       <int>
##  1 2012-10-01     NA
##  2 2012-10-02    126
##  3 2012-10-03  11352
##  4 2012-10-04  12116
##  5 2012-10-05  13294
##  6 2012-10-06  15420
##  7 2012-10-07  11015
##  8 2012-10-08     NA
##  9 2012-10-09  12811
## 10 2012-10-10   9900
## # ... with 51 more rows
```
…
```r
day2 <- group_by(data_noNA, date)
tot_steps_day2 <- summarize(day2, nsteps=sum(steps))
tot_steps_day2
```

```
## # A tibble: 61 x 2
##    date       nsteps
##    <chr>       <int>
##  1 2012-10-01  10641
##  2 2012-10-02    126
##  3 2012-10-03  11352
##  4 2012-10-04  12116
##  5 2012-10-05  13294
##  6 2012-10-06  15420
##  7 2012-10-07  11015
##  8 2012-10-08  10641
##  9 2012-10-09  12811
## 10 2012-10-10   9900
## # ... with 51 more rows
```
…
